{
  "patients": [
    {
      "id": "1",
      "first_name": "Maria",
      "middle_name": "",
      "last_name": "Martinez",
      "date_of_birth": "1987-09-28",
      "sex": "female",
      "phone_number": "324-533-3333",
      "athena_medical_record_number": "21789057",
      "address_city": "Denver",
      "address_state": "CO",
      "address_zipcode": "80205",
      "athena_id": "21789057"
    },
    {
      "id": "2",
      "first_name": "Maron",
      "middle_name": "",
      "last_name": "Fieldstone",
      "date_of_birth": "1954-05-22",
      "sex": "female",
      "phone_number": "324-533-3333",
      "athena_medical_record_number": "21789057",
      "address_city": "Denver",
      "address_state": "CO",
      "address_zipcode": "80205",
      "athena_id": "21789057"
    }
  ],
  "meta": {
    "page_size": 2,
    "total_results": 3,
    "total_pages": 2,
    "current_page": 1,
    "first_page": true,
    "last_page": false,
    "previous_page": 0,
    "next_page": 0
  }
}
