{
  "meta": {
    "current_page": 1,
    "page_size": 25,
    "total_pages": 2,
    "total_results": 26
  },
  "episodes": [
    {
      "id": "1",
      "care_day": "4",
      "admitted_at": "2022-02-28T05:39:37.632Z",
      "discharged_at": "2022-02-28T05:39:37.632Z",
      "source": "string",
      "patient_summary": "Suspected",
      "primary_diagnosis": "Some diagnosis",
      "payer": "IMSS",
      "doctors_primary_care": "Billy Jean",
      "created_at": "2022-02-24T05:39:37.632Z",
      "updated_at": "2022-02-24T05:39:37.632Z",
      "is_waiver": false,
      "service_line": {
        "id": "1",
        "name": "Advanced Care"
      },
      "service_line_id": "1",
      "care_phase": {
        "id": "2",
        "name": "High Acuity"
      },
      "market": {
        "id": "0",
        "name": "Denver",
        "short_name": "DNV",
        "schedule_days": []
      },
      "user": {
        "id": "0",
        "first_name": "Someone",
        "last_name": "Lastname",
        "email": "user@example.com",
        "job_title": "developer"
      },
      "patient": {
        "id": "1",
        "first_name": "QA",
        "middle_name": "",
        "last_name": "Automation",
        "date_of_birth": "1999-04-03",
        "sex": "male",
        "phone_number": "55555",
        "athena_medical_record_number": "string",
        "medical_power_of_attorney_details": "string",
        "payer": "string",
        "preferred_pharmacy_details": "string",
        "primary_care_provider_details": "string",
        "address_street": "123 Derek St.",
        "address_city": "Denver",
        "address_state": "CO",
        "address_zipcode": "04350",
        "address_notes": "string"
      },
      "most_relevant_note": {
        "id": "0",
        "details": "7/24: Stable w good sats thought he says he feels a little worse.",
        "note_kind": "daily_update",
        "noteable_id": 0,
        "noteable_type": "string",
        "created_by_user_id": "1",
        "updated_by_user_id": "1",
        "created_by": {
          "id": "0",
          "first_name": "Noter",
          "last_name": "McNote",
          "email": "user@example.com",
          "job_title": "string"
        },
        "last_updated_by": {
          "id": "0",
          "first_name": "Noter",
          "last_name": "McNote",
          "email": "user@example.com",
          "job_title": "string"
        }
      },
      "incomplete_tasks": {
        "daily_and_onboarding": "1",
        "nurse_navigator": "2",
        "t1": "3",
        "t2": "4"
      }
    },
    {
      "id": "2",
      "care_day": "4",
      "admitted_at": "2022-02-26T05:39:37.632Z",
      "discharged_at": "2022-02-26T05:39:37.632Z",
      "source": "string",
      "patient_summary": " Too insisted ignorant procured remember are believed yet say finished.",
      "primary_diagnosis": "Some diagnosis",
      "payer": "IMSS",
      "doctors_primary_care": "Billy Jean",
      "created_at": "2022-02-24T05:39:37.632Z",
      "updated_at": "2022-02-24T05:39:37.632Z",
      "is_waiver": false,
      "service_line": {
        "id": "2",
        "name": "Bridge Care"
      },
      "service_line_id": "2",
      "care_phase": {
        "id": "3",
        "name": "Transition - High"
      },
      "market": {
        "id": "0",
        "name": "Denver",
        "short_name": "DNV",
        "schedule_days": []
      },
      "user": {
        "id": "0",
        "first_name": "Someone",
        "last_name": "Lastname",
        "email": "user@example.com",
        "job_title": "developer"
      },
      "patient": {
        "id": "2",
        "first_name": "Automation",
        "middle_name": "",
        "last_name": "QA",
        "date_of_birth": "2000-04-03",
        "sex": "other",
        "phone_number": "55555",
        "athena_medical_record_number": "string",
        "medical_power_of_attorney_details": "string",
        "payer": "string",
        "preferred_pharmacy_details": "string",
        "primary_care_provider_details": "string",
        "address_street": "1234 Derek St.",
        "address_city": "El Paso",
        "address_state": "TX",
        "address_zipcode": "90000",
        "address_notes": "string"
      },
      "incomplete_tasks": {
        "daily_and_onboarding": "10",
        "nurse_navigator": "20",
        "t1": "30",
        "t2": "40"
      }
    },
    {
      "id": "3",
      "care_day": "4",
      "admitted_at": "2022-02-24T05:39:37.632Z",
      "discharged_at": "2022-02-24T05:39:37.632Z",
      "source": "string",
      "patient_summary": "Difficulty on insensible reasonable in. From as went he they. Preference themselves me as thoroughly partiality considered on in estimating.",
      "primary_diagnosis": "Some diagnosis",
      "payer": "IMSS",
      "doctors_primary_care": "Billy Jean",
      "created_at": "2022-02-24T05:39:37.632Z",
      "updated_at": "2022-02-24T05:39:37.632Z",
      "is_waiver": false,
      "service_line": {
        "id": "3",
        "name": "Bridge Care Plus"
      },
      "service_line_id": "3",
      "care_phase": {
        "id": "5",
        "name": "Closed"
      },
      "market": {
        "id": "0",
        "name": "Denver",
        "short_name": "DNV",
        "schedule_days": []
      },
      "user": {
        "id": "0",
        "first_name": "Someone",
        "last_name": "Lastname",
        "email": "user@example.com",
        "job_title": "developer"
      },
      "patient": {
        "id": "3",
        "first_name": "Roy",
        "middle_name": "",
        "last_name": "Kent",
        "date_of_birth": "1980-11-03",
        "sex": "female",
        "phone_number": "55555",
        "athena_medical_record_number": "string",
        "medical_power_of_attorney_details": "string",
        "payer": "string",
        "preferred_pharmacy_details": "string",
        "primary_care_provider_details": "string",
        "address_street": "360 Kickflip St.",
        "address_city": "Los Angeles",
        "address_state": "CA",
        "address_zipcode": "90210",
        "address_notes": "string"
      },
      "most_relevant_note": {
        "id": "0",
        "details": "Depart do be so he enough talent. Sociable formerly six but handsome.",
        "note_kind": "daily_update",
        "noteable_id": 0,
        "noteable_type": "string",
        "created_by_user_id": "1",
        "updated_by_user_id": "1",
        "created_by": {
          "id": "0",
          "first_name": "Noter",
          "last_name": "McNote",
          "email": "user@example.com",
          "job_title": "string"
        },
        "last_updated_by": {
          "id": "0",
          "first_name": "Noter",
          "last_name": "McNote",
          "email": "user@example.com",
          "job_title": "string"
        }
      },
      "incomplete_tasks": {
        "daily_and_onboarding": "100",
        "nurse_navigator": "200",
        "t1": "300",
        "t2": "400"
      }
    },
    {
      "id": "4",
      "care_day": "4",
      "admitted_at": "2022-02-24T05:39:37.632Z",
      "discharged_at": "2022-02-24T05:39:37.632Z",
      "source": "string",
      "patient_summary": "Bringing so sociable felicity supplied mr. September suspicion far him two acuteness perfectly. Covered as an examine so regular of.",
      "primary_diagnosis": "Some diagnosis",
      "payer": "IMSS",
      "doctors_primary_care": "Billy Jean",
      "created_at": "2022-02-24T05:39:37.632Z",
      "updated_at": "2022-02-24T05:39:37.632Z",
      "is_waiver": false,
      "service_line": {
        "id": "4",
        "name": "Extended Care"
      },
      "service_line_id": "4",
      "care_phase": {
        "id": "1",
        "name": "Pending"
      },
      "market": {
        "id": "0",
        "name": "Denver",
        "short_name": "DNV",
        "schedule_days": []
      },
      "user": {
        "id": "0",
        "first_name": "Someone",
        "last_name": "Lastname",
        "email": "user@example.com",
        "job_title": "developer"
      },
      "patient": {
        "id": "4",
        "first_name": "Keeley",
        "middle_name": "",
        "last_name": "Jones",
        "date_of_birth": "1934-04-03",
        "sex": "F",
        "phone_number": "55555",
        "athena_medical_record_number": "string",
        "medical_power_of_attorney_details": "string",
        "payer": "string",
        "preferred_pharmacy_details": "string",
        "primary_care_provider_details": "string",
        "address_street": "987 Main St.",
        "address_city": "New York",
        "address_state": "NY",
        "address_zipcode": "84350",
        "address_notes": "string"
      },
      "most_relevant_note": {
        "id": "0",
        "details": "Made last it seen went no just when of by. Occasional entreaties comparison me difficulty so themselves. At brother inquiry of offices witho",
        "note_kind": "daily_update",
        "noteable_id": 0,
        "noteable_type": "string",
        "created_by_user_id": "1",
        "updated_by_user_id": "1",
        "created_by": {
          "id": "0",
          "first_name": "Noter",
          "last_name": "McNote",
          "email": "user@example.com",
          "job_title": "string"
        },
        "last_updated_by": {
          "id": "0",
          "first_name": "Noter",
          "last_name": "McNote",
          "email": "user@example.com",
          "job_title": "string"
        }
      },
      "incomplete_tasks": {
        "daily_and_onboarding": "9",
        "nurse_navigator": "8",
        "t1": "7",
        "t2": "6"
      }
    },
    {
      "id": "9",
      "care_day": "5",
      "admitted_at": "2022-02-24T05:39:37.632Z",
      "discharged_at": "2022-02-24T05:39:37.632Z",
      "source": "string",
      "patient_summary": "Bringing so sociable felicity supplied mr. September suspicion far him two acuteness perfectly. Covered as an examine so regular of.",
      "primary_diagnosis": "Some diagnosis",
      "payer": "IMSS",
      "doctors_primary_care": "Billy Jean",
      "created_at": "2022-02-24T05:39:37.632Z",
      "updated_at": "2022-02-24T05:39:37.632Z",
      "is_waiver": false,
      "service_line": {
        "id": "1",
        "name": "Advanced Care"
      },
      "service_line_id": "1",
      "care_phase": {
        "id": "4",
        "name": "Discharged"
      },
      "market": {
        "id": "0",
        "name": "Denver",
        "short_name": "DNV",
        "schedule_days": []
      },
      "user": {
        "id": "0",
        "first_name": "Someone",
        "last_name": "Lastname",
        "email": "user@example.com",
        "job_title": "developer"
      },
      "patient": {
        "id": "7",
        "first_name": "John",
        "middle_name": "",
        "last_name": "Jones",
        "date_of_birth": "1934-04-03",
        "sex": "F",
        "phone_number": "55555",
        "athena_medical_record_number": "string",
        "medical_power_of_attorney_details": "string",
        "payer": "string",
        "preferred_pharmacy_details": "string",
        "primary_care_provider_details": "string",
        "address_street": "987 Main St.",
        "address_city": "New York",
        "address_state": "NY",
        "address_zipcode": "84350",
        "address_notes": "string"
      },
      "most_relevant_note": {
        "id": "0",
        "details": "Made last it seen went no just when of by. Occasional entreaties comparison me difficulty so themselves. At brother inquiry of offices witho",
        "note_kind": "daily_update",
        "noteable_id": 0,
        "noteable_type": "string",
        "created_by_user_id": "1",
        "updated_by_user_id": "1",
        "created_by": {
          "id": "0",
          "first_name": "Noter",
          "last_name": "McNote",
          "email": "user@example.com",
          "job_title": "string"
        },
        "last_updated_by": {
          "id": "0",
          "first_name": "Noter",
          "last_name": "McNote",
          "email": "user@example.com",
          "job_title": "string"
        }
      },
      "incomplete_tasks": {
        "daily_and_onboarding": "9",
        "nurse_navigator": "8",
        "t1": "7",
        "t2": "6"
      }
    },
    {
      "id": "6",
      "care_day": "8",
      "admitted_at": "2022-02-24T05:39:37.632Z",
      "discharged_at": "2022-02-24T05:39:37.632Z",
      "source": "string",
      "patient_summary": "Active: Bringing so sociable felicity supplied mr. September suspicion far him two acuteness perfectly. Covered as an examine so regular of.",
      "primary_diagnosis": "Some diagnosis",
      "payer": "IMSS",
      "doctors_primary_care": "Billy Jean",
      "created_at": "2022-02-24T05:39:37.632Z",
      "updated_at": "2022-02-24T05:39:37.632Z",
      "is_waiver": false,
      "service_line": {
        "id": "2",
        "name": "Bridge Care"
      },
      "service_line_id": "2",
      "care_phase": {
        "id": "8",
        "name": "Active"
      },
      "market": {
        "id": "0",
        "name": "Denver",
        "short_name": "DNV",
        "schedule_days": []
      },
      "user": {
        "id": "0",
        "first_name": "Someone",
        "last_name": "Lastname",
        "email": "user@example.com",
        "job_title": "developer"
      },
      "patient": {
        "id": "4",
        "first_name": "Keeley",
        "middle_name": "",
        "last_name": "Jones",
        "date_of_birth": "1934-04-03",
        "sex": "F",
        "phone_number": "55555",
        "athena_medical_record_number": "string",
        "medical_power_of_attorney_details": "string",
        "payer": "string",
        "preferred_pharmacy_details": "string",
        "primary_care_provider_details": "string",
        "address_street": "987 Main St.",
        "address_city": "New York",
        "address_state": "NY",
        "address_zipcode": "84350",
        "address_notes": "string"
      },
      "most_relevant_note": {
        "id": "0",
        "details": "Made last it seen went no just when of by. Occasional entreaties comparison me difficulty so themselves. At brother inquiry of offices witho",
        "note_kind": "daily_update",
        "noteable_id": 0,
        "noteable_type": "string",
        "created_by_user_id": "1",
        "updated_by_user_id": "1",
        "created_by": {
          "id": "0",
          "first_name": "Noter",
          "last_name": "McNote",
          "email": "user@example.com",
          "job_title": "string"
        },
        "last_updated_by": {
          "id": "0",
          "first_name": "Noter",
          "last_name": "McNote",
          "email": "user@example.com",
          "job_title": "string"
        }
      },
      "incomplete_tasks": {
        "daily_and_onboarding": "9",
        "nurse_navigator": "8",
        "t1": "7",
        "t2": "6"
      }
    },
    {
      "id": "3",
      "care_day": "5",
      "admitted_at": "2022-02-26T05:39:37.632Z",
      "discharged_at": "2022-02-26T05:39:37.632Z",
      "source": "string",
      "patient_summary": "Too insisted ignorant procured remember are believed yet say finished.",
      "primary_diagnosis": "Some diagnosis",
      "payer": "IMSS",
      "doctors_primary_care": "Billy Jean",
      "created_at": "2022-02-24T05:39:37.632Z",
      "updated_at": "2022-02-24T05:39:37.632Z",
      "is_waiver": false,
      "service_line": {
        "id": "2",
        "name": "Bridge Care"
      },
      "service_line_id": "2",
      "care_phase": {
        "id": "4",
        "name": "Transition - Low"
      },
      "market": {
        "id": "0",
        "name": "Denver",
        "short_name": "DNV",
        "schedule_days": []
      },
      "user": {
        "id": "0",
        "first_name": "Someone",
        "last_name": "Lastname",
        "email": "user@example.com",
        "job_title": "developer"
      },
      "patient": {
        "id": "2",
        "first_name": "Automation",
        "middle_name": "",
        "last_name": "QA",
        "date_of_birth": "2000-04-03",
        "sex": "other",
        "phone_number": "55555",
        "athena_medical_record_number": "string",
        "medical_power_of_attorney_details": "string",
        "payer": "string",
        "preferred_pharmacy_details": "string",
        "primary_care_provider_details": "string",
        "address_street": "1234 Derek St.",
        "address_city": "El Paso",
        "address_state": "TX",
        "address_zipcode": "90000",
        "address_notes": "string"
      },
      "incomplete_tasks": {
        "daily_and_onboarding": "10",
        "nurse_navigator": "20",
        "t1": "30",
        "t2": "40"
      }
    }
  ]
}
